4.75579191882  7.48872180451
14.5086292968  7.36842105263
22.6338203232  7.18796992481
30.757381258  6.94736842105
37.9037023453  6.64661654135
45.0475782953  6.25563909774
51.5402326956  5.83458646617
57.7052387065  5.32330827068
63.2190231677  4.78195488722
67.4287344377  4.12030075188
70.6620209059  3.42857142857
73.5684740306  2.67669172932
76.1521690405  2.01503759398
78.0830124091  1.26315789474
80.0179310064  0.661654135338
81.9642602441  0.481203007519
86.8366037044  0.270676691729
90.0870061332  0.210526315789
94.9650549137  0.210526315789
102.768302871  0.15037593985
104.39268904  0.0902255639098
106.668296758  0.0601503759398
111.221142287  0.0601503759398
120.652036596  0.0601503759398
129.107321148  0.0601503759398
136.912199197  0.0601503759398
146.343093506  0.0601503759398
152.52277034  0.0902255639098
161.629276443  0.12030075188
169.434969538  0.15037593985
178.865048801  0.12030075188
186.019520346  0.12030075188
194.151231738  0.18045112782
