# reac: h2(h3,n+p)h3
3710000.0;0.0
3900000.0;0.010352
4000000.0;0.013894
4100000.0;0.017312
4200000.0;0.020689
4300000.0;0.024077
4400000.0;0.027523
4500000.0;0.031071
4600000.0;0.034763
4700000.0;0.038633
4800000.0;0.042704
4900000.0;0.046989
5000000.0;0.051479
5100000.0;0.056151
5200000.0;0.060959
5300000.0;0.065847
5400000.0;0.070742
5600000.0;0.080254
5800000.0;0.088939
6000000.0;0.096404
6200000.0;0.10248
6400000.0;0.1072
6600000.0;0.11069
6800000.0;0.11314
7000000.0;0.1147
7200000.0;0.11554
7400000.0;0.11577
7600000.0;0.11546
7800000.0;0.1147
8000000.0;0.11353
8200000.0;0.11199
8400000.0;0.11014
8600000.0;0.10803
9000000.0;0.10318
9500000.0;0.09647
1.0E7;0.089644
