# reac: h3(n,n+n)h2
8350669.0;0.0
8380000.0;0.001
8381250.0;0.0010589
8382421.0;0.0011173
8383521.0;0.001175
8384551.0;0.0012318
8386481.0;0.0013458
8388171.0;0.0014541
8389640.0;0.001556
8390941.0;0.001651
8392071.0;0.0017389
8393062.0;0.0018196
8394800.0;0.00197
8396101.0;0.0020909
8398050.0;0.0022863
8400000.0;0.00249989
8400001.0;0.0025
8406221.0;0.0026538
8412051.0;0.0028067
8417521.0;0.0029579
8422651.0;0.0031071
8427461.0;0.0032538
8436501.0;0.0035478
8444411.0;0.0038267
8451340.0;0.0040887
8457400.0;0.0043326
8462722.0;0.004558
8472021.0;0.0049809
8479011.0;0.0053236
8484250.0;0.0055961
8492121.0;0.0060311
8500000.0;0.0065
8512442.0;0.0069805
8523332.0;0.00743
8532882.0;0.007847
8541241.0;0.008231
8555890.0;0.0089488
8566901.0;0.009527901
8575161.0;0.009986699
8587570.0;0.010717
8600000.0;0.0115
8637261.0;0.012586
8665311.0;0.013468
8686400.0;0.014169
8718140.0;0.01529
8750000.0;0.0165
8780871.0;0.017291
8800000.0;0.01781162
8835140.0;0.018768
8876071.0;0.019958
8937820.0;0.021886
9000000.0;0.024
9061861.0;0.025586
9108531.0;0.026844
9178991.0;0.028847
9200000.0;0.02948399
9250000.0;0.031
9374171.0;0.033174
9400000.0;0.03365146
9500000.0;0.0355
9600000.0;0.03718256
9622611.0;0.037563
9800000.0;0.0407163
9809490.0;0.040885
1.0E7;0.0445
1.025E7;0.0475
1.05E7;0.0495
1.075E7;0.0507
1.1E7;0.0516
1.13E7;0.0522
1.15E7;0.0525
1.2E7;0.0525
1.25E7;0.0522
1.3E7;0.0516
1.35E7;0.0509
1.4E7;0.05
1.41E7;0.0497
1.45E7;0.0488
1.5E7;0.0476
1.55E7;0.0464
1.6E7;0.045
1.67332E7;0.042849
1.7E7;0.04213607
1.75E7;0.0408
1.79568E7;0.039433
1.8E7;0.03931299
1.86645E7;0.037467
1.9E7;0.03661536
1.94E7;0.0356
2.0E7;0.0338
