Incident energy ; MT=2 : (z,elastic) ; MT=50 : (y,n0) ; MT=51 : (z,n'1)
Incident energy ;  ;  ; 
Incident energy ; σ(E) ; σ(E) ; σ(E)
100.0 ;  ; 2.0469E-56 ; 
200.0 ;  ; 7.4327E-39 ; 
300.0 ;  ; 4.0555E-31 ; 
400.0 ;  ; 1.5862E-26 ; 
500.0 ;  ; 2.1029E-23 ; 
600.0 ;  ; 4.1704E-21 ; 
700.0 ;  ; 2.5141E-19 ; 
800.0 ;  ; 6.7828E-18 ; 
900.0 ;  ; 1.0321E-16 ; 
1000.0 ;  ; 1.0268E-15 ; 
2000.0 ;  ; 2.3063E-10 ; 
3000.0 ;  ; 4.9369E-8 ; 
4000.0 ;  ; 1.1604E-6 ; 
5000.0 ;  ; 9.7767E-6 ; 
6000.0 ;  ; 4.6453E-5 ; 
7000.0 ;  ; 1.5443E-4 ; 
8000.0 ;  ; 4.0383E-4 ; 
9000.0 ;  ; 8.9074E-4 ; 
10000.0 ; 1.0 ; 0.0017326 ; 
11000.0 ; 1.0 ; 0.003062 ; 
12000.0 ; 1.0 ; 0.0050202 ; 
14000.0 ; 1.0 ; 0.011399 ; 
16000.0 ; 1.0 ; 0.021986 ; 
18000.0 ; 1.0 ; 0.037791 ; 
20000.0 ; 1.0 ; 0.059678 ; 
22000.0 ; 1.0 ; 0.088359 ; 
24000.0 ; 1.0 ; 0.12441 ; 
26000.0 ; 1.0 ; 0.1683 ; 
28000.0 ; 1.0 ; 0.22039 ; 
30000.0 ; 1.0 ; 0.28096 ; 
35000.0 ; 1.0 ; 0.47073 ; 
40000.0 ; 1.0 ; 0.71636 ; 
45000.0 ; 1.0 ; 1.0173 ; 
50000.0 ; 1.0 ; 1.3702 ; 
55000.0 ; 1.0 ; 1.7686 ; 
60000.0 ; 1.0 ; 2.2021 ; 
65000.0 ; 1.0 ; 2.6563 ; 
70000.0 ; 1.0 ; 3.1134 ; 
75000.0 ; 1.0 ; 3.5535 ; 
80000.0 ; 1.0 ; 3.9571 ; 
85000.0 ; 1.0 ; 4.3068 ; 
90000.0 ; 1.0 ; 4.5902 ; 
95000.0 ; 1.0 ; 4.8005 ; 
100000.0 ; 1.0 ; 4.937 ; 
102000.0 ; 1.0 ; 4.9718 ; 
104000.0 ; 1.0 ; 4.9959 ; 
106000.0 ; 1.0 ; 5.0098 ; 
108000.0 ; 1.0 ; 5.0142 ; 
110000.0 ; 1.0 ; 5.0097 ; 
112000.0 ; 1.0 ; 4.9969 ; 
114000.0 ; 1.0 ; 4.9766 ; 
120000.0 ; 1.0 ; 4.8769 ; 
125000.0 ; 1.0 ; 4.7592 ; 
130000.0 ; 1.0 ; 4.6194 ; 
135000.0 ; 1.0 ; 4.4652 ; 
140000.0 ; 1.0 ; 4.3027 ; 
145000.0 ; 1.0 ; 4.1366 ; 
150000.0 ; 1.0 ; 3.9704 ; 
160000.0 ; 1.0 ; 3.6475 ; 
170000.0 ; 1.0 ; 3.3465 ; 
180000.0 ; 1.0 ; 3.0723 ; 
190000.0 ; 1.0 ; 2.8256 ; 
200000.0 ; 1.0 ; 2.6051 ; 
220000.0 ; 1.0 ; 2.2332 ; 
240000.0 ; 1.0 ; 1.9369 ; 
260000.0 ; 1.0 ; 1.6985 ; 
280000.0 ; 1.0 ; 1.5046 ; 
300000.0 ; 1.0 ; 1.3448 ; 
320000.0 ; 1.0 ; 1.2116 ; 
340000.0 ; 1.0 ; 1.0994 ; 
360000.0 ; 1.0 ; 1.0039 ; 
380000.0 ; 1.0 ; 0.92182 ; 
400000.0 ; 1.0 ; 0.85074 ; 
420000.0 ; 1.0 ; 0.7887 ; 
440000.0 ; 1.0 ; 0.7342 ; 
460000.0 ; 1.0 ; 0.686 ; 
480000.0 ; 1.0 ; 0.64315 ; 
500000.0 ; 1.0 ; 0.60485 ; 
550000.0 ; 1.0 ; 0.52504 ; 
600000.0 ; 1.0 ; 0.46249 ; 
650000.0 ; 1.0 ; 0.4124 ; 
700000.0 ; 1.0 ; 0.37157 ; 
750000.0 ; 1.0 ; 0.33778 ; 
800000.0 ; 1.0 ; 0.30944 ; 
850000.0 ; 1.0 ; 0.28541 ; 
900000.0 ; 1.0 ; 0.26483 ; 
950000.0 ; 1.0 ; 0.24705 ; 
1000000.0 ; 1.0 ; 0.23158 ; 
1100000.0 ; 1.0 ; 0.20607 ; 
1200000.0 ; 1.0 ; 0.18603 ; 
1300000.0 ; 1.0 ; 0.16999 ; 
1400000.0 ; 1.0 ; 0.15695 ; 
1500000.0 ; 1.0 ; 0.1462 ; 
1600000.0 ; 1.0 ; 0.13725 ; 
1700000.0 ; 1.0 ; 0.12971 ; 
1800000.0 ; 1.0 ; 0.12333 ; 
1900000.0 ; 1.0 ; 0.11788 ; 
2000000.0 ; 1.0 ; 0.1132 ; 
2100000.0 ; 1.0 ; 0.10916 ; 
2200000.0 ; 1.0 ; 0.10567 ; 
2300000.0 ; 1.0 ; 0.10263 ; 
2400000.0 ; 1.0 ; 0.099995 ; 
2500000.0 ; 1.0 ; 0.097697 ; 
2600000.0 ; 1.0 ; 0.095695 ; 
2700000.0 ; 1.0 ; 0.093952 ; 
2800000.0 ; 1.0 ; 0.092438 ; 
2900000.0 ; 1.0 ; 0.091126 ; 
3000000.0 ; 1.0 ; 0.089992 ; 
3100000.0 ; 1.0 ; 0.089017 ; 
3200000.0 ; 1.0 ; 0.088184 ; 
3300000.0 ; 1.0 ; 0.087475 ; 
3400000.0 ; 1.0 ; 0.086877 ; 
3500000.0 ; 1.0 ; 0.08638 ; 
3600000.0 ; 1.0 ; 0.085975 ; 
3700000.0 ; 1.0 ; 0.085698 ; 
3710000.0 ; 1.0 ; 0.0856544 ; 0.0
3800000.0 ; 1.0 ; 0.085262 ; 0.004903578947368421
3900000.0 ; 1.0 ; 0.084843 ; 0.010352
4000000.0 ; 1.0 ; 0.084461 ; 0.013894
4100000.0 ; 1.0 ; 0.084102 ; 0.017312
4200000.0 ; 1.0 ; 0.083756 ; 0.020689
4300000.0 ; 1.0 ; 0.083415 ; 0.024077
4400000.0 ; 1.0 ; 0.08307 ; 0.027523
4500000.0 ; 1.0 ; 0.082715 ; 0.031071
4600000.0 ; 1.0 ; 0.082342 ; 0.034763
4700000.0 ; 1.0 ; 0.081946 ; 0.038633
4800000.0 ; 1.0 ; 0.081523 ; 0.042704
4900000.0 ; 1.0 ; 0.081069 ; 0.046989
5000000.0 ; 1.0 ; 0.080582 ; 0.051479
5100000.0 ; 1.0 ; 0.08004549999999999 ; 0.056151
5200000.0 ; 1.0 ; 0.079509 ; 0.060959
5300000.0 ; 1.0 ; 0.078912 ; 0.065847
5400000.0 ; 1.0 ; 0.078315 ; 0.070742
5600000.0 ; 1.0 ; 0.07703 ; 0.080254
5800000.0 ; 1.0 ; 0.075695 ; 0.088939
6000000.0 ; 1.0 ; 0.074348 ; 0.096404
6200000.0 ; 1.0 ; 0.073015 ; 0.10248
6400000.0 ; 1.0 ; 0.071712 ; 0.1072
6600000.0 ; 1.0 ; 0.070442 ; 0.11069
6800000.0 ; 1.0 ; 0.069201 ; 0.11314
7000000.0 ; 1.0 ; 0.067979 ; 0.1147
7200000.0 ; 1.0 ; 0.06661339999999999 ; 0.11554
7400000.0 ; 1.0 ; 0.06524780000000001 ; 0.11577
7500000.0 ; 1.0 ; 0.064565 ; 0.115615
7600000.0 ; 1.0 ; 0.0638988 ; 0.11546
7800000.0 ; 1.0 ; 0.06256640000000001 ; 0.1147
8000000.0 ; 1.0 ; 0.061234 ; 0.11353
8200000.0 ; 1.0 ; 0.060051600000000004 ; 0.11199
8400000.0 ; 1.0 ; 0.0588692 ; 0.11014
8500000.0 ; 1.0 ; 0.058278 ; 0.109085
8600000.0 ; 1.0 ; 0.0577584 ; 0.10803
9000000.0 ; 1.0 ; 0.05568 ; 0.10318
9500000.0 ; 1.0 ; 0.053365 ; 0.09647
1.0E7 ; 1.0 ; 0.051372 ; 0.089644
1.1E7 ;  ; 0.047773 ; 
1.14E7 ;  ; 0.046531 ; 
1.2E7 ;  ; 0.044817 ; 
1.275E7 ;  ; 0.042837 ; 
1.336E7 ;  ; 0.041536 ; 
1.35E7 ;  ; 0.041155 ; 
1.5E7 ;  ; 0.038398 ; 
1.65E7 ;  ; 0.036127 ; 
1.8E7 ;  ; 0.034278 ; 
1.9E7 ;  ; 0.033226 ; 
2.0E7 ;  ; 0.032297 ; 
2.25E7 ;  ; 0.030399 ; 
2.4E7 ;  ; 0.029494 ; 
2.5E7 ;  ; 0.028973 ; 
2.75E7 ;  ; 0.027892 ; 
2.96E7 ;  ; 0.027182 ; 
3.0E7 ;  ; 0.027062 ; 
